…
#### Tables

Once `DXGAP_DATADIR` is set, build a wide table for given year and
disease:

``` r
tb_vars <- c(
  "year", "country", "is_hbc", "country_code", "who_dx_gap", "pop_total",
  "pop_urban_perc", "pop_density", "gdp", "c_newinc", "e_inc_num",
  "e_mort_100k", "culture", "smear", "xpert", "m_wrd"
)

build_tbl("tb", year = 2019, vars = tb_vars)
#> # A tibble: 190 × 15
#>     year country        is_hbc country_code pop_total pop_urban_perc pop_density
#>    <dbl> <chr>           <dbl> <chr>            <dbl>          <dbl>       <dbl>
#>  1  2019 Angola              1 AGO             3.24e7           66.2       26.0 
#>  2  2019 Bangladesh          1 BGD             1.66e8           37.4     1272.  
#>  3  2019 Brazil              1 BRA             2.12e8           86.8       25.3 
#>  4  2019 Central Afric…      1 CAF             5.21e6           41.8        8.36
#>  5  2019 China               1 CHN             1.41e9           60.3      150.  
#>  6  2019 Congo - Kinsh…      1 COD             8.99e7           45.0       39.7 
#>  7  2019 Congo - Brazz…      1 COG             5.57e6           67.4       16.3 
#>  8  2019 Ethiopia            1 ETH             1.14e8           21.2      101.  
#>  9  2019 Indonesia           1 IDN             2.70e8           56.0      144.  
#> 10  2019 India               1 IND             1.38e9           34.5      465.  
#> # ℹ 180 more rows
#> # ℹ 8 more variables: gdp <dbl>, c_newinc <dbl>, e_inc_num <dbl>,
#> #   e_mort_100k <dbl>, culture <dbl>, smear <dbl>, xpert <dbl>, m_wrd <dbl>
```

Optionally, a time series can be build:

``` r
build_tbl("tb", year = NULL, vars = tb_vars)
#> # A tibble: 1,140 × 15
#>     year country    is_hbc country_code pop_total pop_urban_perc pop_density
#>    <dbl> <chr>       <dbl> <chr>            <dbl>          <dbl>       <dbl>
#>  1  2016 Angola          1 AGO           29154746           64.1        23.4
#>  2  2017 Angola          1 AGO           30208628           64.8        24.2
#>  3  2018 Angola          1 AGO           31273533           65.5        25.1
#>  4  2019 Angola          1 AGO           32353588           66.2        26.0
#>  5  2020 Angola          1 AGO           33428486           66.8        26.8
#>  6  2021 Angola          1 AGO           34503774           67.5        27.7
#>  7  2016 Bangladesh      1 BGD          159784568           35.1      1228. 
#>  8  2017 Bangladesh      1 BGD          161793964           35.9      1243. 
#>  9  2018 Bangladesh      1 BGD          163683958           36.6      1257. 
#> 10  2019 Bangladesh      1 BGD          165516222           37.4      1272. 
#> # ℹ 1,130 more rows
#> # ℹ 8 more variables: gdp <dbl>, c_newinc <dbl>, e_inc_num <dbl>,
#> #   e_mort_100k <dbl>, culture <dbl>, smear <dbl>, xpert <dbl>, m_wrd <dbl>
```
…
